particle_system explosion
{
    material jet
    particle_width 8.4
    particle_height 8.4
    quota 20
    billboard_type point

    emitter Box
    {
	width 3
	depth 3
	height 3

	angle 360
        emission_rate 100
        time_to_live 0.1
        direction 0 0 -1
        velocity_min 10
        velocity_max 40
        colour_range_start 1 0.5 0
        colour_range_end 0 0 0
   
    }

    affector Scaler
    {
        rate -10 -10
    }

    affector ColourFader
    {
        alpha -10
    }

    affector LinearForce
    {
	force_vector 0 -100 0
    }
    
    	
}
